<?xml version="1.0" encoding="utf-8"?>
<!-- Generator: Adobe Illustrator 20.1.0, SVG Export Plug-In . SVG Version: 6.00 Build 0)  -->
<svg version="1.1" id="Layer_1" xmlns="http://www.w3.org/2000/svg" xmlns:xlink="http://www.w3.org/1999/xlink" x="0px" y="0px"
	 viewBox="0 0 100 100" style="enable-background:new 0 0 100 100;" xml:space="preserve">
<style type="text/css">
	.st0{fill:#4984C5;}
	.st1{fill:#FFFFFF;}
</style>
<circle class="st0" cx="50" cy="50" r="50"/>
<g id="Icon" transform="translate(-17.2 0)">
	<path id="Path_14" class="st1" d="M54.4,57.9h29.6c3.2,0.1,6-2.4,6.1-5.7V40.5c0,0,0,0,0-0.1c0,0,0-0.1,0-0.1c0,0,0,0,0-0.1
		c0,0,0,0,0-0.1c0,0,0,0,0-0.1c0,0,0,0,0-0.1c0,0,0,0,0-0.1c0,0,0,0,0-0.1l0-0.1c0,0,0,0,0-0.1s0,0,0-0.1c0,0,0,0,0-0.1
		c0,0,0,0,0-0.1s0,0,0-0.1s0,0,0,0l-0.1,0c0,0,0,0-0.1,0c0,0,0,0-0.1,0l-0.1,0c0,0,0,0-0.1,0l-0.1,0l-0.1,0l-0.1,0c0,0,0,0-0.1,0
		c0,0-0.1,0-0.1,0c0,0,0,0-0.1,0c0,0-0.1,0-0.1,0c0,0,0,0,0,0l-37.6-4.9v-4.9c0,0,0-0.1,0-0.1c0,0,0,0,0,0c0,0,0-0.1,0-0.1
		s0-0.1,0-0.1c0,0,0,0,0-0.1l0-0.1c0,0,0,0,0,0c0,0,0-0.1,0-0.1c0,0,0,0,0,0c0,0,0,0,0-0.1c0,0,0,0,0-0.1c0,0,0,0,0-0.1
		c0,0,0,0,0-0.1l0,0L51,28.6l0,0c0,0,0,0-0.1-0.1c0,0,0,0,0,0c0,0,0,0-0.1-0.1c0,0-0.1,0-0.1-0.1c0,0,0,0,0,0l-0.1-0.1l-8.2-3.2
		c-0.7-0.3-1.6,0-2,0.7c-0.3,0.7,0,1.5,0.7,1.8c0,0,0.1,0,0.1,0l7.2,2.8v30.4c0.1,2.9,2.4,5.4,5.3,5.6c-0.6,0.9-0.9,1.9-0.9,2.9
		c0.2,3.3,3.1,5.8,6.5,5.6c3-0.2,5.4-2.6,5.6-5.6c0-1-0.3-2-0.8-2.8h13.4c-0.5,0.8-0.8,1.8-0.8,2.8c0.2,3.3,3.1,5.8,6.5,5.6
		c3-0.2,5.4-2.6,5.6-5.6c-0.1-3.2-2.8-5.7-6-5.6H54.4c-1.7,0.1-3.1-1.2-3.1-2.9v-3.7C52.3,57.7,53.4,57.9,54.4,57.9z M61.9,69.4
		c0.1,1.7-1.1,3.1-2.8,3.3s-3.1-1.1-3.3-2.8s1.1-3.1,2.8-3.3c0.1,0,0.2,0,0.2,0C60.5,66.5,61.8,67.8,61.9,69.4L61.9,69.4z
		 M85.7,69.4c0.1,1.7-1.1,3.1-2.8,3.3s-3.1-1.1-3.3-2.8s1.1-3.1,2.8-3.3c0.1,0,0.2,0,0.2,0C84.3,66.5,85.6,67.8,85.7,69.4L85.7,69.4
		z M84.1,55.1H54.4c-1.7,0.1-3-1.2-3.1-2.9v-15l35.9,4.6v10.4C87.1,53.9,85.8,55.2,84.1,55.1L84.1,55.1z"/>
</g>
</svg>
