<?xml version="1.0" encoding="utf-8"?>
<!-- Generator: Adobe Illustrator 22.1.0, SVG Export Plug-In . SVG Version: 6.00 Build 0)  -->
<svg version="1.1" id="Layer_1" xmlns="http://www.w3.org/2000/svg" xmlns:xlink="http://www.w3.org/1999/xlink" x="0px" y="0px"
	 viewBox="0 0 16 16" style="enable-background:new 0 0 16 16;" xml:space="preserve">
<style type="text/css">
	.st0{fill:#FFFFFF;}
</style>
<g id="earth-globe" transform="translate(0)">
	<path id="Path_10" class="st0" d="M13.656,2.344C10.5327-0.7764,5.4712-0.7741,2.3508,2.3492S-0.7673,10.534,2.356,13.6544
		s8.1848,3.1181,11.3052-0.0052C15.1586,12.1505,15.9998,10.1186,16,8C16.0061,5.8771,15.1619,3.8402,13.656,2.344z M15.276,7.644
		h-3.1c-0.0207-1.1761-0.1908-2.3448-0.506-3.478c0.5954-0.3075,1.1495-0.6892,1.649-1.136c1.178,1.2565,1.8712,2.8907,1.956,4.611
		L15.276,7.644z M8.36,8.362h3.1c-0.019,1.0813-0.1715,2.1561-0.454,3.2c-0.843-0.3391-1.7373-0.5335-2.645-0.575L8.36,8.362z
		 M12.8,2.527c-0.4153,0.3653-0.8709,0.682-1.358,0.944c-0.1193-0.3353-0.2599-0.6626-0.421-0.98
		c-0.268-0.5529-0.6229-1.0593-1.051-1.5C11.0165,1.2845,11.9837,1.8094,12.8,2.527z M8.359,0.827
		c0.9302,0.3331,1.6684,1.056,2.021,1.979c0.1577,0.3141,0.295,0.6382,0.411,0.97c-0.7739,0.3193-1.5968,0.5036-2.433,0.545
		L8.359,0.827z M11.007,4.465c0.2783,1.0368,0.4284,2.1037,0.447,3.177h-3.1v-2.6c0.9089-0.0422,1.8042-0.2376,2.648-0.578
		L11.007,4.465z M7.64,7.639h-3.1c0.0186-1.0733,0.1687-2.1402,0.447-3.177c0.8431,0.3422,1.7389,0.5367,2.648,0.575v2.6L7.64,7.639
		z M7.64,0.828v3.494C6.8038,4.281,5.9808,4.0967,5.207,3.777c0.116-0.3318,0.2533-0.6559,0.411-0.97
		c0.3526-0.923,1.0908-1.6459,2.021-1.979H7.64z M6.03,0.988c-0.4274,0.4413-0.7822,0.9476-1.051,1.5
		c-0.1584,0.3186-0.2989,0.6458-0.421,0.98C4.0714,3.2052,3.6159,2.8885,3.2,2.524c0.8176-0.7178,1.7862-1.2424,2.834-1.535
		L6.03,0.988z M2.683,3.026c0.5003,0.4457,1.0543,0.8273,1.649,1.136C4.0154,5.2949,3.8453,6.4638,3.826,7.64h-3.1
		c0.0857-1.7216,0.7808-3.3567,1.961-4.613L2.683,3.026z M0.724,8.358h3.1c0.0209,1.1838,0.1934,2.36,0.513,3.5
		c-0.5931,0.3055-1.1448,0.6852-1.642,1.13c-1.1867-1.259-1.8844-2.9008-1.967-4.629L0.724,8.358z M3.212,13.485
		c0.4139-0.3623,0.8675-0.6766,1.352-0.937c0.1193,0.3279,0.2579,0.6485,0.415,0.96c0.2687,0.554,0.6234,1.0619,1.051,1.505
		c-1.0396-0.2941-2.0008-0.8157-2.814-1.527L3.212,13.485z M7.64,15.17c-0.9302-0.3331-1.6684-1.056-2.021-1.979
		c-0.1527-0.3082-0.2863-0.6254-0.4-0.95c0.7712-0.3198,1.592-0.5032,2.426-0.542v3.471H7.64z M5,11.556
		c-0.2825-1.0439-0.435-2.1187-0.454-3.2h3.1v2.622C6.7373,11.0172,5.8422,11.2127,5,11.556z M8.363,15.171V11.7
		c0.8337,0.0404,1.6543,0.2237,2.426,0.542c-0.1137,0.3246-0.2473,0.6418-0.4,0.95c-0.3539,0.9243-1.0945,1.6474-2.027,1.979H8.363z
		 M9.973,15.011c0.4283-0.4424,0.7831-0.9505,1.051-1.505c0.1571-0.3115,0.2957-0.6321,0.415-0.96
		c0.4845,0.2604,0.9381,0.5747,1.352,0.937c-0.8129,0.7148-1.7764,1.237-2.819,1.528H9.973z M13.31,12.987
		c-0.498-0.4437-1.0496-0.8234-1.642-1.13c0.3194-1.1401,0.4918-2.3162,0.513-3.5h3.1c-0.0874,1.7275-0.7864,3.3675-1.972,4.627
		L13.31,12.987z"/>
</g>
</svg>
